{
    "relationships": [],
    "fields": [
        {
            "fieldName": "idchat",
            "fieldType": "Integer"
        },
        {
            "fieldName": "author",
            "fieldType": "String"
        },
        {
            "fieldName": "content",
            "fieldType": "String"
        }
    ],
    "changelogDate": "20160726145125",
    "dto": "no",
    "service": "no",
    "entityTableName": "cchatmessz",
    "pagination": "no"
}
