{
    "relationships": [],
    "fields": [
        {
            "fieldName": "student",
            "fieldType": "String"
        },
        {
            "fieldName": "operateur",
            "fieldType": "String"
        },
        {
            "fieldName": "state",
            "fieldType": "Integer"
        }
    ],
    "changelogDate": "20160726140540",
    "dto": "no",
    "service": "no",
    "entityTableName": "cchatz",
    "pagination": "no"
}
